let bool_and param =
  match param with
  | true -> (fun x -> x)
  | false -> (fun param -> match param with | _ -> false)
let _ =
  match if let arg2_2 = false
           and arg1_1 = true in bool_and arg1_1 arg2_2
        then assert false
        else (let arg1_3 = "Hello World" in Stdlib.print_endline arg1_3)
  with
  | () as let_alias_4 -> let_alias_4
