[@@@warning "-37"]
type a =
  | A 
type b =
  | B 
type _ d =
  | Ad: a d 
  | Bd: b d 
  | P: 'k d * 'k d -> 'k d 
type g =
  | C: 'k d -> g 
let _ = match Ad with | Ad -> 0 | P (_, _) -> 1
let _ =
  match let let_def0_1 = Ad in C let_def0_1 with
  | C (Ad) -> 0
  | C (Bd) -> 1
  | C (P (_, _)) -> (-1)
let _ = match Ad with | Ad -> 0 | P (Ad, _) -> 1 | P (P (_, _), _) -> (-1)
let _ = match Bd with | Bd -> 0 | P (Bd, _) -> 1 | P (P (_, _), _) -> (-1)
let _ =
  match Bd with
  | Bd -> 0
  | P (Bd, _) -> 1
  | P (P (_, _), Bd) -> (-1)
  | ((_)[@compl ? Bd | P (Bd, _) | P (P (_, _), Bd)]) ->
      let match_failure_2 =
        let match_failure_column_5 = 8
        and match_failure_line_4 = 21
        and match_failure_file_3 = "is_gadt_total.ml" in
        let match_failure_tuple_6 =
          (match_failure_file_3, match_failure_line_4,
            match_failure_column_5) in
        Match_failure match_failure_tuple_6 in
      Stdlib.raise match_failure_2
