[@@@warning "-32"]
let dispatch_value_1 = 42
let dispatch_exception_2 = 27
let x =
  match 0 with
  | dispatch_value_1 ->
      (match dispatch_value_1 with
       | 1 -> 0
       | ((_)[@compl ? 1]) -> dispatch_value_1)
  | exception dispatch_exception_2 ->
      (match dispatch_exception_2 with
       | Not_found -> dispatch_exception_2
       | ((dispatch_exception_2)[@compl ? Not_found]) ->
           Stdlib.raise_notrace dispatch_exception_2)
